{
	"info": {
		"_postman_id": "8cad0e98-9035-4bf3-9bd0-0414eb0597d9",
		"name": "Hackaton",
		"schema": "https://schema.getpostman.com/json/collection/v2.1.0/collection.json"
	},
	"item": [
		{
			"name": "BBVA - crearParametro",
			"request": {
				"method": "POST",
				"header": [],
				"body": {
					"mode": "raw",
					"raw": "{\r\n    \"convenio\" : \"14627\",\r\n    \"operacion\" : \"2010\",\r\n    \"url\" : \"http://localhost:8082/simulador/v1/deuda/notificarPago\"\r\n}",
					"options": {
						"raw": {
							"language": "json"
						}
					}
				},
				"url": {
					"raw": "http://localhost:8080/recaudos/v1/parametros",
					"protocol": "http",
					"host": [
						"localhost"
					],
					"port": "8080",
					"path": [
						"recaudos",
						"v1",
						"parametros"
					]
				}
			},
			"response": [
				{
					"name": "BBVA - crearParametro",
					"originalRequest": {
						"method": "POST",
						"header": [],
						"body": {
							"mode": "raw",
							"raw": "{\r\n    \"convenio\" : \"14627\",\r\n    \"operacion\" : \"1010\",\r\n    \"url\" : \"http://localhost:8082/simulador/v1/deuda/consultarDeuda\"\r\n}",
							"options": {
								"raw": {
									"language": "json"
								}
							}
						},
						"url": {
							"raw": "http://localhost:8080/recaudos/v1/parametros",
							"protocol": "http",
							"host": [
								"localhost"
							],
							"port": "8080",
							"path": [
								"recaudos",
								"v1",
								"parametros"
							]
						}
					},
					"status": "Created",
					"code": 201,
					"_postman_previewlanguage": "plain",
					"header": [
						{
							"key": "Content-Length",
							"value": "0"
						},
						{
							"key": "Date",
							"value": "Fri, 21 May 2021 18:01:48 GMT"
						},
						{
							"key": "Keep-Alive",
							"value": "timeout=60"
						},
						{
							"key": "Connection",
							"value": "keep-alive"
						}
					],
					"cookie": [],
					"body": null
				}
			]
		},
		{
			"name": "BBVA - listarParametros",
			"protocolProfileBehavior": {
				"disableBodyPruning": true
			},
			"request": {
				"method": "GET",
				"header": [],
				"body": {
					"mode": "raw",
					"raw": "",
					"options": {
						"raw": {
							"language": "json"
						}
					}
				},
				"url": {
					"raw": "http://localhost:8080/recaudos/v1/parametros",
					"protocol": "http",
					"host": [
						"localhost"
					],
					"port": "8080",
					"path": [
						"recaudos",
						"v1",
						"parametros"
					]
				}
			},
			"response": [
				{
					"name": "BBVA - listarParametros",
					"originalRequest": {
						"method": "GET",
						"header": [],
						"body": {
							"mode": "raw",
							"raw": "",
							"options": {
								"raw": {
									"language": "json"
								}
							}
						},
						"url": {
							"raw": "http://localhost:8080/recaudos/v1/parametros",
							"protocol": "http",
							"host": [
								"localhost"
							],
							"port": "8080",
							"path": [
								"recaudos",
								"v1",
								"parametros"
							]
						}
					},
					"status": "OK",
					"code": 200,
					"_postman_previewlanguage": "json",
					"header": [
						{
							"key": "Content-Type",
							"value": "application/json"
						},
						{
							"key": "Transfer-Encoding",
							"value": "chunked"
						},
						{
							"key": "Date",
							"value": "Fri, 21 May 2021 18:02:40 GMT"
						},
						{
							"key": "Keep-Alive",
							"value": "timeout=60"
						},
						{
							"key": "Connection",
							"value": "keep-alive"
						}
					],
					"cookie": [],
					"body": "[\n    {\n        \"id\": \"60a7f58c2112c750696d08f4\",\n        \"convenio\": \"14627\",\n        \"operacion\": \"1010\",\n        \"url\": \"http://localhost:8082/simulador/v1/deuda/consultarDeuda\"\n    },\n    {\n        \"id\": \"60a7f5bc2112c750696d08f5\",\n        \"convenio\": \"14627\",\n        \"operacion\": \"2010\",\n        \"url\": \"http://localhost:8082/simulador/v1/deuda/notificarPago\"\n    }\n]"
				}
			]
		},
		{
			"name": "BBVA - crearConvenio",
			"request": {
				"method": "POST",
				"header": [],
				"body": {
					"mode": "raw",
					"raw": "{\r\n    \"codigo\" : \"14700\",\r\n    \"nombre\" : \"Claro\",\r\n    \"estado\" : \"N\"\r\n}",
					"options": {
						"raw": {
							"language": "json"
						}
					}
				},
				"url": {
					"raw": "http://localhost:8080/recaudos/v1/convenios",
					"protocol": "http",
					"host": [
						"localhost"
					],
					"port": "8080",
					"path": [
						"recaudos",
						"v1",
						"convenios"
					]
				}
			},
			"response": [
				{
					"name": "BBVA - crearConvenio",
					"originalRequest": {
						"method": "POST",
						"header": [],
						"body": {
							"mode": "raw",
							"raw": "{\r\n    \"codigo\" : \"14629\",\r\n    \"nombre\" : \"CLARO\",\r\n    \"estado\" : \"N\"\r\n}",
							"options": {
								"raw": {
									"language": "json"
								}
							}
						},
						"url": {
							"raw": "http://localhost:8080/recaudos/v1/convenios",
							"protocol": "http",
							"host": [
								"localhost"
							],
							"port": "8080",
							"path": [
								"recaudos",
								"v1",
								"convenios"
							]
						}
					},
					"status": "Created",
					"code": 201,
					"_postman_previewlanguage": "plain",
					"header": [
						{
							"key": "Content-Length",
							"value": "0"
						},
						{
							"key": "Date",
							"value": "Fri, 21 May 2021 14:39:31 GMT"
						},
						{
							"key": "Keep-Alive",
							"value": "timeout=60"
						},
						{
							"key": "Connection",
							"value": "keep-alive"
						}
					],
					"cookie": [],
					"body": ""
				}
			]
		},
		{
			"name": "EMPRESA - registrarDeuda",
			"request": {
				"method": "POST",
				"header": [],
				"body": {
					"mode": "raw",
					"raw": "{\r\n    \"numero\" : \"3\",\r\n    \"descripcion\" : \"2021-07\",\r\n    \"fechaEmision\" : \"20210515\",\r\n    \"fechaVencimiento\" : \"20210625\",\r\n    \"importaDeuda\" : 125.60,\r\n    \"numeroReferencia\" : \"1515\",\r\n    \"estado\" : \"A\"\r\n}",
					"options": {
						"raw": {
							"language": "json"
						}
					}
				},
				"url": {
					"raw": "http://localhost:8082/simulador/v1/deuda",
					"protocol": "http",
					"host": [
						"localhost"
					],
					"port": "8082",
					"path": [
						"simulador",
						"v1",
						"deuda"
					]
				}
			},
			"response": [
				{
					"name": "EMPRESA - registrarDeuda",
					"originalRequest": {
						"method": "POST",
						"header": [],
						"body": {
							"mode": "raw",
							"raw": "{\r\n    \"numero\" : \"1234567\",\r\n    \"descripcion\" : \"2021-05\",\r\n    \"fechaEmision\" : \"20210520\",\r\n    \"fechaVencimiento\" : \"20210620\",\r\n    \"importaDeuda\" : 125.60,\r\n    \"numeroReferencia\" : \"1516\",\r\n    \"nombreCliente\" : \"David\",\r\n    \"estado\" : \"A\"\r\n}",
							"options": {
								"raw": {
									"language": "json"
								}
							}
						},
						"url": {
							"raw": "http://localhost:8082/simulador/v1/deuda",
							"protocol": "http",
							"host": [
								"localhost"
							],
							"port": "8082",
							"path": [
								"simulador",
								"v1",
								"deuda"
							]
						}
					},
					"status": "Created",
					"code": 201,
					"_postman_previewlanguage": "plain",
					"header": [
						{
							"key": "Content-Length",
							"value": "0"
						},
						{
							"key": "Date",
							"value": "Fri, 21 May 2021 14:39:57 GMT"
						},
						{
							"key": "Keep-Alive",
							"value": "timeout=60"
						},
						{
							"key": "Connection",
							"value": "keep-alive"
						}
					],
					"cookie": [],
					"body": ""
				}
			]
		},
		{
			"name": "BBVA - consultarDeuda",
			"protocolProfileBehavior": {
				"disableBodyPruning": true
			},
			"request": {
				"method": "GET",
				"header": [],
				"body": {
					"mode": "raw",
					"raw": "",
					"options": {
						"raw": {
							"language": "json"
						}
					}
				},
				"url": {
					"raw": "http://localhost:8080/recaudos/v1/deuda?convenio=14627&referencia=1515",
					"protocol": "http",
					"host": [
						"localhost"
					],
					"port": "8080",
					"path": [
						"recaudos",
						"v1",
						"deuda"
					],
					"query": [
						{
							"key": "convenio",
							"value": "14627"
						},
						{
							"key": "referencia",
							"value": "1515"
						}
					]
				}
			},
			"response": [
				{
					"name": "BBVA - consultarDeuda",
					"originalRequest": {
						"method": "GET",
						"header": [],
						"url": {
							"raw": "http://localhost:8080/recaudos/v1/deuda?convenio=14628&referencia=1516",
							"protocol": "http",
							"host": [
								"localhost"
							],
							"port": "8080",
							"path": [
								"recaudos",
								"v1",
								"deuda"
							],
							"query": [
								{
									"key": "convenio",
									"value": "14628"
								},
								{
									"key": "referencia",
									"value": "1516"
								}
							]
						}
					},
					"status": "OK",
					"code": 200,
					"_postman_previewlanguage": "json",
					"header": [
						{
							"key": "Content-Type",
							"value": "application/json"
						},
						{
							"key": "Transfer-Encoding",
							"value": "chunked"
						},
						{
							"key": "Date",
							"value": "Fri, 21 May 2021 14:40:16 GMT"
						},
						{
							"key": "Keep-Alive",
							"value": "timeout=60"
						},
						{
							"key": "Connection",
							"value": "keep-alive"
						}
					],
					"cookie": [],
					"body": "{\n    \"consultaDeudaResponse\": {\n        \"recaudosRs\": {\n            \"cabecera\": {\n                \"operacion\": {\n                    \"codigoOperacion\": \"1010\",\n                    \"numeroOperacion\": 14,\n                    \"codigoBanco\": \"25001\",\n                    \"codigoConvenio\": \"14628\",\n                    \"canalOperacion\": \"EX\",\n                    \"codigoOficina\": \"2021\",\n                    \"fechaOperacion\": \"20210521\",\n                    \"horaOperacion\": \"094016\"\n                }\n            },\n            \"detalle\": {\n                \"transaccion\": {\n                    \"numeroReferenciaDeuda\": \"1516\",\n                    \"nombreCliente\": \"Jair Perez\",\n                    \"listaDocumentos\": {\n                        \"documento\": [\n                            {\n                                \"numero\": \"123456\",\n                                \"descripcion\": \"2021-05\",\n                                \"fechaEmision\": \"20210520\",\n                                \"fechaVencimiento\": \"20210620\",\n                                \"importaDeuda\": 125.6,\n                                \"importaDeudaMinima\": 0.1\n                            },\n                            {\n                                \"numero\": \"1234567\",\n                                \"descripcion\": \"2021-05\",\n                                \"fechaEmision\": \"20210520\",\n                                \"fechaVencimiento\": \"20210620\",\n                                \"importaDeuda\": 125.6,\n                                \"importaDeudaMinima\": 0.1\n                            }\n                        ]\n                    }\n                },\n                \"respuesta\": {\n                    \"codigo\": \"0001\",\n                    \"descripcion\": \"Transacción realizada con éxito\"\n                }\n            }\n        }\n    }\n}"
				}
			]
		},
		{
			"name": "BBVA - listarConvenios",
			"protocolProfileBehavior": {
				"disableBodyPruning": true
			},
			"request": {
				"method": "GET",
				"header": [],
				"body": {
					"mode": "raw",
					"raw": "",
					"options": {
						"raw": {
							"language": "json"
						}
					}
				},
				"url": {
					"raw": "http://localhost:8080/recaudos/v1/convenios",
					"protocol": "http",
					"host": [
						"localhost"
					],
					"port": "8080",
					"path": [
						"recaudos",
						"v1",
						"convenios"
					]
				}
			},
			"response": [
				{
					"name": "BBVA - listarConvenios",
					"originalRequest": {
						"method": "GET",
						"header": [],
						"url": {
							"raw": "http://localhost:8080/recaudos/v1/convenios",
							"protocol": "http",
							"host": [
								"localhost"
							],
							"port": "8080",
							"path": [
								"recaudos",
								"v1",
								"convenios"
							]
						}
					},
					"status": "OK",
					"code": 200,
					"_postman_previewlanguage": "json",
					"header": [
						{
							"key": "Content-Type",
							"value": "application/json"
						},
						{
							"key": "Transfer-Encoding",
							"value": "chunked"
						},
						{
							"key": "Date",
							"value": "Fri, 21 May 2021 14:40:24 GMT"
						},
						{
							"key": "Keep-Alive",
							"value": "timeout=60"
						},
						{
							"key": "Connection",
							"value": "keep-alive"
						}
					],
					"cookie": [],
					"body": "[\n    {\n        \"codigo\": \"14627\",\n        \"nombre\": \"LUS DEL SUR\",\n        \"estado\": \"N\"\n    },\n    {\n        \"codigo\": \"14628\",\n        \"nombre\": \"CLARO\",\n        \"estado\": \"N\"\n    },\n    {\n        \"codigo\": \"14629\",\n        \"nombre\": \"CLARO\",\n        \"estado\": \"N\"\n    }\n]"
				}
			]
		},
		{
			"name": "BBVA - modificarConvenio",
			"request": {
				"method": "PATCH",
				"header": [],
				"body": {
					"mode": "raw",
					"raw": "{\r\n    \"nombre\": \"Claro Movil\",\r\n    \"estado\": \"N\"\r\n}",
					"options": {
						"raw": {
							"language": "json"
						}
					}
				},
				"url": {
					"raw": "http://localhost:8080/recaudos/v1/convenios/14800",
					"protocol": "http",
					"host": [
						"localhost"
					],
					"port": "8080",
					"path": [
						"recaudos",
						"v1",
						"convenios",
						"14800"
					]
				}
			},
			"response": [
				{
					"name": "BBVA - modificarConvenio",
					"originalRequest": {
						"method": "PUT",
						"header": [],
						"body": {
							"mode": "raw",
							"raw": "{\r\n    \"nombre\": \"LUZ DEL SUR\",\r\n    \"estado\": \"S\"\r\n}",
							"options": {
								"raw": {
									"language": "json"
								}
							}
						},
						"url": {
							"raw": "http://localhost:8080/recaudos/v1/convenios/14627",
							"protocol": "http",
							"host": [
								"localhost"
							],
							"port": "8080",
							"path": [
								"recaudos",
								"v1",
								"convenios",
								"14627"
							]
						}
					},
					"status": "No Content",
					"code": 204,
					"_postman_previewlanguage": "plain",
					"header": [
						{
							"key": "Content-Type",
							"value": "text/plain;charset=UTF-8"
						},
						{
							"key": "Date",
							"value": "Fri, 21 May 2021 14:41:57 GMT"
						},
						{
							"key": "Keep-Alive",
							"value": "timeout=60"
						},
						{
							"key": "Connection",
							"value": "keep-alive"
						}
					],
					"cookie": [],
					"body": ""
				}
			]
		},
		{
			"name": "BBVA - notificarPago",
			"request": {
				"method": "POST",
				"header": [],
				"body": {
					"mode": "raw",
					"raw": "{\r\n    \"codigoConvenio\" : \"14627\",\r\n    \"transaccionPago\" : {\r\n        \"numeroReferenciaDeuda\" : \"1515\",\r\n        \"numeroDocumento\": \"3\",\r\n        \"importeDeudaPagada\":  125.6,\r\n        \"formaPago\" : \"CT\"\r\n    }\r\n}",
					"options": {
						"raw": {
							"language": "json"
						}
					}
				},
				"url": {
					"raw": "http://localhost:8080/recaudos/v1/notificarPago",
					"protocol": "http",
					"host": [
						"localhost"
					],
					"port": "8080",
					"path": [
						"recaudos",
						"v1",
						"notificarPago"
					]
				}
			},
			"response": [
				{
					"name": "BBVA - notificarPago",
					"originalRequest": {
						"method": "POST",
						"header": [],
						"body": {
							"mode": "raw",
							"raw": "{\r\n    \"codigoConvenio\" : \"14628\",\r\n    \"transaccionPago\" : {\r\n        \"numeroReferenciaDeuda\" : \"1516\",\r\n        \"numeroDocumento\": \"123456\",\r\n        \"importeDeudaPagada\":  125.6,\r\n        \"formaPago\" : \"CT\"\r\n    }\r\n}",
							"options": {
								"raw": {
									"language": "json"
								}
							}
						},
						"url": {
							"raw": "http://localhost:8080/recaudos/v1/notificarPago",
							"protocol": "http",
							"host": [
								"localhost"
							],
							"port": "8080",
							"path": [
								"recaudos",
								"v1",
								"notificarPago"
							]
						}
					},
					"status": "OK",
					"code": 200,
					"_postman_previewlanguage": "json",
					"header": [
						{
							"key": "Content-Type",
							"value": "application/json"
						},
						{
							"key": "Transfer-Encoding",
							"value": "chunked"
						},
						{
							"key": "Date",
							"value": "Fri, 21 May 2021 14:43:32 GMT"
						},
						{
							"key": "Keep-Alive",
							"value": "timeout=60"
						},
						{
							"key": "Connection",
							"value": "keep-alive"
						}
					],
					"cookie": [],
					"body": "{\n    \"notificarPagoResponse\": {\n        \"recaudosRs\": {\n            \"cabecera\": {\n                \"operacion\": {\n                    \"codigoOperacion\": \"1010\",\n                    \"numeroOperacion\": 5,\n                    \"codigoBanco\": \"25001\",\n                    \"codigoConvenio\": \"14628\",\n                    \"canalOperacion\": \"EX\",\n                    \"codigoOficina\": \"2021\",\n                    \"fechaOperacion\": \"20210521\",\n                    \"horaOperacion\": \"094332\"\n                }\n            },\n            \"detalle\": {\n                \"transaccion\": {\n                    \"numeroReferenciaDeuda\": \"1516\"\n                },\n                \"respuesta\": {\n                    \"codigo\": \"001\",\n                    \"descripcion\": \"Transacción realizada con éxito\"\n                }\n            }\n        }\n    }\n}"
				}
			]
		},
		{
			"name": "EMPRESA - simuladorConsultaDeuda",
			"request": {
				"method": "POST",
				"header": [],
				"body": {
					"mode": "raw",
					"raw": "{\r\n    \"consultaDeuda\": {\r\n        \"recaudosRq\": {\r\n            \"cabecera\": {\r\n                \"operacion\": {\r\n                    \"codigoOperacion\": \"1010\",\r\n                    \"numeroOperacion\": 1,\r\n                    \"codigoBanco\": \"25001\",\r\n                    \"codigoConvenio\": \"14627\",\r\n                    \"canalOperacion\": \"EX\",\r\n                    \"codigoOficina\": \"2021\",\r\n                    \"fechaOperacion\": \"20210520\",\r\n                    \"horaOperacion\": \"054242\"\r\n                }\r\n            },\r\n            \"detalle\": {\r\n                \"transaccion\": {\r\n                    \"numeroReferenciaDeuda\": \"1515\"\r\n                }\r\n            }\r\n        }\r\n    }\r\n}",
					"options": {
						"raw": {
							"language": "json"
						}
					}
				},
				"url": {
					"raw": "http://localhost:8082/simulador/v1/deuda/consultarDeuda",
					"protocol": "http",
					"host": [
						"localhost"
					],
					"port": "8082",
					"path": [
						"simulador",
						"v1",
						"deuda",
						"consultarDeuda"
					]
				}
			},
			"response": [
				{
					"name": "EMPRESA - simuladorConsultaDeuda",
					"originalRequest": {
						"method": "POST",
						"header": [],
						"body": {
							"mode": "raw",
							"raw": "{\r\n    \"consultaDeuda\": {\r\n        \"recaudosRq\": {\r\n            \"cabecera\": {\r\n                \"operacion\": {\r\n                    \"codigoOperacion\": \"1010\",\r\n                    \"numeroOperacion\": 1,\r\n                    \"codigoBanco\": \"25001\",\r\n                    \"codigoConvenio\": \"14627\",\r\n                    \"canalOperacion\": \"EX\",\r\n                    \"codigoOficina\": \"2021\",\r\n                    \"fechaOperacion\": \"20210520\",\r\n                    \"horaOperacion\": \"054242\"\r\n                }\r\n            },\r\n            \"detalle\": {\r\n                \"transaccion\": {\r\n                    \"numeroReferenciaDeuda\": \"1515\"\r\n                }\r\n            }\r\n        }\r\n    }\r\n}",
							"options": {
								"raw": {
									"language": "json"
								}
							}
						},
						"url": {
							"raw": "http://localhost:8082/simulador/v1/deuda/consultarDeuda",
							"protocol": "http",
							"host": [
								"localhost"
							],
							"port": "8082",
							"path": [
								"simulador",
								"v1",
								"deuda",
								"consultarDeuda"
							]
						}
					},
					"status": "OK",
					"code": 200,
					"_postman_previewlanguage": "json",
					"header": [
						{
							"key": "Content-Type",
							"value": "application/json"
						},
						{
							"key": "Transfer-Encoding",
							"value": "chunked"
						},
						{
							"key": "Date",
							"value": "Fri, 21 May 2021 14:43:41 GMT"
						},
						{
							"key": "Keep-Alive",
							"value": "timeout=60"
						},
						{
							"key": "Connection",
							"value": "keep-alive"
						}
					],
					"cookie": [],
					"body": "{\n    \"consultaDeudaResponse\": {\n        \"recaudosRs\": {\n            \"cabecera\": {\n                \"operacion\": {\n                    \"codigoOperacion\": \"1010\",\n                    \"numeroOperacion\": 1,\n                    \"codigoBanco\": \"25001\",\n                    \"codigoConvenio\": \"14627\",\n                    \"canalOperacion\": \"EX\",\n                    \"codigoOficina\": \"2021\",\n                    \"fechaOperacion\": \"20210520\",\n                    \"horaOperacion\": \"054242\"\n                }\n            },\n            \"detalle\": {\n                \"transaccion\": {\n                    \"numeroReferenciaDeuda\": \"1515\",\n                    \"nombreCliente\": \"Jair Perez\",\n                    \"listaDocumentos\": {\n                        \"documento\": [\n                            {\n                                \"numero\": \"14627\",\n                                \"descripcion\": \"2021-05\",\n                                \"fechaEmision\": \"20210520\",\n                                \"fechaVencimiento\": \"20210620\",\n                                \"importaDeuda\": 125.6,\n                                \"importaDeudaMinima\": 0.1\n                            }\n                        ]\n                    }\n                },\n                \"respuesta\": {\n                    \"codigo\": \"0001\",\n                    \"descripcion\": \"Transacción realizada con éxito\"\n                }\n            }\n        }\n    }\n}"
				}
			]
		},
		{
			"name": "EMPRESA - simuladorNotificarPago",
			"request": {
				"method": "POST",
				"header": [],
				"body": {
					"mode": "raw",
					"raw": "{\r\n    \"notificarPago\": {\r\n        \"recaudosRq\": {\r\n            \"cabecera\": {\r\n                \"operacion\": {\r\n                    \"codigoOperacion\": \"1010\",\r\n                    \"numeroOperacion\": 1,\r\n                    \"codigoBanco\": \"25001\",\r\n                    \"codigoConvenio\": \"14627\",\r\n                    \"canalOperacion\": \"EX\",\r\n                    \"codigoOficina\": \"2021\",\r\n                    \"fechaOperacion\": \"20210520\",\r\n                    \"horaOperacion\": \"054242\"\r\n                }\r\n            },\r\n            \"detalle\": {\r\n                \"transaccion\": {\r\n                    \"numeroReferenciaDeuda\": \"1515\",\r\n                    \"numeroDocumento\" : \"1\",\r\n                    \"importeDeudaPagada\" : 100.0,\r\n                    \"formaPago\" : \"CT\"\r\n                },\r\n                \"respuesta\": {\r\n                    \"codigo\": \"0001\",\r\n                    \"descripcion\": \"Transacción realizada con éxito\"\r\n                }\r\n            }\r\n        }\r\n    }\r\n}",
					"options": {
						"raw": {
							"language": "json"
						}
					}
				},
				"url": {
					"raw": "http://localhost:8082/simulador/v1/deuda/notificarPago",
					"protocol": "http",
					"host": [
						"localhost"
					],
					"port": "8082",
					"path": [
						"simulador",
						"v1",
						"deuda",
						"notificarPago"
					]
				}
			},
			"response": [
				{
					"name": "EMPRESA - simuladorNotificarPago",
					"originalRequest": {
						"method": "POST",
						"header": [],
						"body": {
							"mode": "raw",
							"raw": "{\r\n    \"notificarPago\": {\r\n        \"recaudosRq\": {\r\n            \"cabecera\": {\r\n                \"operacion\": {\r\n                    \"codigoOperacion\": \"1010\",\r\n                    \"numeroOperacion\": 1,\r\n                    \"codigoBanco\": \"25001\",\r\n                    \"codigoConvenio\": \"14627\",\r\n                    \"canalOperacion\": \"EX\",\r\n                    \"codigoOficina\": \"2021\",\r\n                    \"fechaOperacion\": \"20210520\",\r\n                    \"horaOperacion\": \"054242\"\r\n                }\r\n            },\r\n            \"detalle\": {\r\n                \"transaccion\": {\r\n                    \"numeroReferenciaDeuda\": \"1516\",\r\n                    \"numeroDocumento\" : \"123456\",\r\n                    \"importeDeudaPagada\" : 100.0,\r\n                    \"formaPago\" : \"CT\"\r\n                },\r\n                \"respuesta\": {\r\n                    \"codigo\": \"0001\",\r\n                    \"descripcion\": \"Transacción realizada con éxito\"\r\n                }\r\n            }\r\n        }\r\n    }\r\n}",
							"options": {
								"raw": {
									"language": "json"
								}
							}
						},
						"url": {
							"raw": "http://localhost:8082/simulador/v1/deuda/notificarPago",
							"protocol": "http",
							"host": [
								"localhost"
							],
							"port": "8082",
							"path": [
								"simulador",
								"v1",
								"deuda",
								"notificarPago"
							]
						}
					},
					"status": "OK",
					"code": 200,
					"_postman_previewlanguage": "json",
					"header": [
						{
							"key": "Content-Type",
							"value": "application/json"
						},
						{
							"key": "Transfer-Encoding",
							"value": "chunked"
						},
						{
							"key": "Date",
							"value": "Fri, 21 May 2021 14:44:19 GMT"
						},
						{
							"key": "Keep-Alive",
							"value": "timeout=60"
						},
						{
							"key": "Connection",
							"value": "keep-alive"
						}
					],
					"cookie": [],
					"body": "{\n    \"notificarPagoResponse\": {\n        \"recaudosRs\": {\n            \"cabecera\": {\n                \"operacion\": {\n                    \"codigoOperacion\": \"1010\",\n                    \"numeroOperacion\": 1,\n                    \"codigoBanco\": \"25001\",\n                    \"codigoConvenio\": \"14627\",\n                    \"canalOperacion\": \"EX\",\n                    \"codigoOficina\": \"2021\",\n                    \"fechaOperacion\": \"20210520\",\n                    \"horaOperacion\": \"054242\"\n                }\n            },\n            \"detalle\": {\n                \"transaccion\": {\n                    \"numeroReferenciaDeuda\": \"1516\"\n                },\n                \"respuesta\": {\n                    \"codigo\": \"001\",\n                    \"descripcion\": \"Transacción realizada con éxito\"\n                }\n            }\n        }\n    }\n}"
				}
			]
		}
	]
}